F:\study material\Selenium Framework\Navneet Framework\Cucumber_Selenium_Demo_Navneet\src\test\java\stepDefinations\Steps.java
F:\study material\Selenium Framework\Navneet Framework\Cucumber_Selenium_Demo_Navneet\src\test\java\assertAndVerify\AssertionClass.java
F:\study material\Selenium Framework\Navneet Framework\Cucumber_Selenium_Demo_Navneet\src\test\java\PageJava\TestCode.java
F:\study material\Selenium Framework\Navneet Framework\Cucumber_Selenium_Demo_Navneet\src\test\java\runners\TestRunner.java
